index
…
library(tidyr)
household |> 
  pivot_longer(
    everything(), 
    values_transform = vecvec::vecvec
  )

# A tibble: 25 × 2
   name        value     
   <chr>       <vecvec>  
 1 family      1         
 2 dob_child1  2         
 3 dob_child2  3         
 4 name_child1 4         
 5 name_child2 5         
 6 family      1998-11-26
 7 dob_child1  1996-06-22
 8 dob_child2  2002-07-11
 9 name_child1 2004-10-10
10 name_child2 2000-12-05
# ℹ 15 more rows
…
